{
    "index": "index.ejs",
    "notfound": "404.ejs",
    "redirect": {
        "callback": "/dashboard",
        "failedcallback": "/",
        "logout": "/",
        "deleteserver": "/servers",
        "updateservers": "/dashboard",
        "createserver": "/servers",
        "failedcreateserver": "/servers/new",
        "modifyserver": "/servers",
        "failedmodifyserver": "/servers/edit",
        "setplan": "/admin",
        "failedsetplan": "/admin",
        "createserverdisabled": "/servers?err=disabled",
        "modifyserverdisabled": "/servers?err=disabled",
        "deleteserverdisabled": "/servers?err=disabled",
        "regenpassword": "/dashboard",
        "setresources": "/admin",
        "failedsetresources": "/admin",
        "renewserver": "/servers",
        "setcoins": "/admin",
        "failedsetcoins": "/admin",
        "purchaseram": "/store",
        "failedpurchaseram": "/store",
        "purchasedisk": "/store",
        "failedpurchasedisk": "/store",
        "purchasecpu": "/store",
        "failedpurchasecpu": "/store",
        "purchaseservers": "/store",
        "failedpurchaseservers": "/store",
        "shop": "/store"
    },
    "pages": {
        "dashboard": "dashboard.ejs",
        "servers": "servers.ejs",
        "servers/new": "create.ejs",
        "servers/edit": "edit.ejs",
        "admin": "admin.ejs",
        "store": "store.ejs",
        "details": "details.ejs"
    },
    "mustbeloggedin": [
        "/dashboard",
        "/servers",
        "/servers/new",
        "/servers/edit",
        "/store",
        "/details"
    ],
    "mustbeadmin": [
        "/admin"
    ],
    "variables": {
        "footerad": true,
        "faviconlink": "https://camo.githubusercontent.com/d2e9b4ddcf7618efa123961ae270f7eaa83362f8/68747470733a2f2f6d656469612e646973636f72646170702e6e65742f6174746163686d656e74732f3730363937303631373437313330333736312f3736383630363132323134373730383936382f707465726f64616374796c2d70616e656c2e706e67",
        "home": {
            "title": "Dashactyl - Home",
            "name": "Dashactyl",
            "topmsg": "Dashactyl",
            "bottommsg": "An dashboard addition to the Pterodactyl Panel.",
            "buttontext": {
                "loggedin": {
                    "text": "Dashboard",
                    "link": "/dashboard"
                },
                "loggedout": {
                    "text": "Login with discord",
                    "link": "/login"
                }
            }
        },
        "dashboard": {
            "title": "Dashactyl - Dashboard"
        },
        "servers": {
            "title": {
                "list": "Dashactyl - Servers",
                "create": "Dashactyl - Create Server",
                "modify": "Dashactyl - Modify Server"
            }
        },
        "error": {
            "title": "Dashactyl - 404"
        },
        "admin": {
            "title": {
                "default": "Dashactyl - Admin"
            }
        },
        "store": {
            "title": "Dashactyl - Store"
        }
    }
}
